<?xml version="1.0" encoding="UTF-8"?>
<!DOCTYPE svg PUBLIC "-//W3C//DTD SVG 1.1//EN" "http://www.w3.org/Graphics/SVG/1.1/DTD/svg11.dtd">
<svg xmlns="http://www.w3.org/2000/svg" 
    xml:space="preserve" 
    width="160px" 
    height="160px" 
    version="1.1" 
    style="shape-rendering:geometricPrecision; text-rendering:geometricPrecision; image-rendering:optimizeQuality; fill-rule:evenodd; clip-rule:evenodd"
    viewBox="0 0 160 160"
    xmlns:xlink="http://www.w3.org/1999/xlink">
 <defs>
  <style type="text/css">
   <![CDATA[
    .lol-dark {fill: #785A28}
    .lol-light {fill: #C8AA6E}
   ]]>
  </style>
 </defs>
 <g>
  <path class="lol-light" d="M44 16l12 34c2,4 9,42 4,42 0,-16 -28,-34 -40,-40 2,8 12,5 19,38 4,17 2,17 3,18 5,6 15,12 20,18 4,5 14,18 19,20.001 1,-10.001 12,-17.001 1,-57.001 -6,-25 -24,-51 -38,-73z"/>
  <path class="lol-light" d="M99 127c5,-3 19,-16 20,-23 0,-5 0,-8 1,-13 7,-31 18,-32 20,-39 -22,14 -29,23 -38,49 -3,10 -3,14 -3,26z"/>
  <path class="lol-light" d="M116 16c-4,4 -31,46 -31,52 1,8 7,16 8,25l2 0c3,-31 15,-51 21,-77z"/>
 </g>
</svg>
